2018-01-22 08:20:24:	Info:	Thank you for using Qlik Slack ChatBOT.
2018-01-22 08:20:26:	Info:	Connected to qlik sense version: 3.2.4
2018-01-22 08:20:26:	Info:	UserID: tmichatbot - VirtualProxy: hdr
2018-01-22 08:20:30:	Info:	Opened App ff1aa43c-debd-46fa-8855-86318b9a8a69
2018-01-22 08:20:30:	Info:	Opened the qlik sense app: Harvest Demo for BOT
2018-01-22 08:20:30:	Info:	Opened connection with Dialogflow.
2018-01-22 08:20:52:	Info:	Message received.
2018-01-22 08:20:52:	Info:	Message.		[jsuthar] [Hi]
2018-01-22 08:20:53:	Info:	Opened App ff1aa43c-debd-46fa-8855-86318b9a8a69
2018-01-22 08:20:53:	Info:	Opened the qlik sense app: Harvest Demo for BOT for user u8h8pp6a0 (Jigar Suthar)
2018-01-22 08:20:53:	Info:	Is message direct command? - No
2018-01-22 08:20:56:	Info:	Is message identified by Dialogflow? - Yes
2018-01-22 08:20:56:	Info:	Identified intent: Hello
2018-01-22 08:20:56:	Info:	Sent text <Hi Jigar Suthar, How are you doing?
Tell me how can I help you. (type help for options)> to channel D8JM56J4W
2018-01-22 08:20:56:	Info:	Message received.
2018-01-22 08:24:08:	Info:	Message received.
2018-01-22 08:24:08:	Info:	Message.		[jsuthar] [How many billable hours entered in Feb 2017?]
2018-01-22 08:24:08:	Info:	Is message direct command? - No
2018-01-22 08:24:09:	Info:	Is message identified by Dialogflow? - Yes
2018-01-22 08:24:10:	Info:	Identified intent: KPI
2018-01-22 08:24:10:	Info:	Identified Measures: Total Billable Hours
2018-01-22 08:26:16:	Info:	Sent text <I think you want to know Total Billable Hours when .
In that case, the Total Billable Hours is 135.00> to channel D8JM56J4W
2018-01-22 08:26:17:	Info:	Message received.
2018-01-22 08:51:20:	Info:	Thank you for using Qlik Slack ChatBOT.
2018-01-22 08:51:22:	Info:	Connected to qlik sense version: 3.2.4
2018-01-22 08:51:22:	Info:	UserID: tmichatbot - VirtualProxy: hdr
2018-01-22 08:51:24:	Info:	Opened App ff1aa43c-debd-46fa-8855-86318b9a8a69
2018-01-22 08:51:24:	Info:	Opened the qlik sense app: Harvest Demo for BOT
2018-01-22 08:51:24:	Info:	Opened connection with Dialogflow.
2018-01-22 08:52:30:	Info:	Message received.
2018-01-22 08:52:30:	Info:	Message.		[jsuthar] [How many billable hours entered in Feb 2017?]
2018-01-22 08:52:32:	Info:	Opened App ff1aa43c-debd-46fa-8855-86318b9a8a69
2018-01-22 08:52:32:	Info:	Opened the qlik sense app: Harvest Demo for BOT for user u8h8pp6a0 (Jigar Suthar)
2018-01-22 08:52:32:	Info:	Is message direct command? - No
2018-01-22 08:52:34:	Info:	Is message identified by Dialogflow? - Yes
2018-01-22 08:52:34:	Info:	Identified intent: KPI
2018-01-22 08:52:34:	Info:	Identified Measures: Total Billable Hours
2018-01-22 08:54:00:	Info:	Sent text <I think you want to know Total Billable Hours on date(s).
In that case, the Total Billable Hours is 135.00> to channel D8JM56J4W
2018-01-22 08:54:02:	Info:	Message received.
2018-01-22 08:58:59:	Info:	Message received.
2018-01-22 08:58:59:	Info:	Message.		[jsuthar] [How many billable hours entered for Jinesh Patel in Feb 2017?]
2018-01-22 08:58:59:	Info:	Is message direct command? - No
2018-01-22 08:59:01:	Info:	Is message identified by Dialogflow? - Yes
2018-01-22 08:59:01:	Info:	Identified intent: KPI
2018-01-22 08:59:01:	Info:	Identified Measures: Total Billable Hours
2018-01-22 08:59:40:	Info:	Sent text <I think you want to know Total Billable Hours on date(s).
In that case, the Total Billable Hours is 135.00> to channel D8JM56J4W
2018-01-22 08:59:41:	Info:	Message received.
2018-01-22 09:04:58:	Info:	Thank you for using Qlik Slack ChatBOT.
2018-01-22 09:04:59:	Info:	Connected to qlik sense version: 3.2.4
2018-01-22 09:04:59:	Info:	UserID: tmichatbot - VirtualProxy: hdr
2018-01-22 09:05:02:	Info:	Opened App ff1aa43c-debd-46fa-8855-86318b9a8a69
2018-01-22 09:05:02:	Info:	Opened the qlik sense app: Harvest Demo for BOT
2018-01-22 09:05:02:	Info:	Opened connection with Dialogflow.
2018-01-22 09:08:37:	Info:	Message received.
2018-01-22 09:08:37:	Info:	Message.		[jsuthar] [How many billable hours entered for Jinesh Patel in Feb 2017?]
2018-01-22 09:08:40:	Info:	Opened App ff1aa43c-debd-46fa-8855-86318b9a8a69
2018-01-22 09:08:40:	Info:	Opened the qlik sense app: Harvest Demo for BOT for user u8h8pp6a0 (Jigar Suthar)
2018-01-22 09:08:40:	Info:	Is message direct command? - No
2018-01-22 09:08:41:	Info:	Is message identified by Dialogflow? - Yes
2018-01-22 09:08:42:	Info:	Identified intent: KPI
2018-01-22 09:08:42:	Info:	Identified Measures: Total Billable Hours
2018-01-22 09:09:13:	Info:	Sent text <I think you want to know Total Billable Hours on date(s).
In that case, the Total Billable Hours is 135.00> to channel D8JM56J4W
2018-01-22 09:09:14:	Info:	Message received.
2018-01-22 09:10:50:	Info:	Message received.
2018-01-22 09:10:50:	Info:	Message.		[jsuthar] [Get billable hours entered for Jinesh Patel in Feb 2017?]
2018-01-22 09:10:51:	Info:	Is message direct command? - No
2018-01-22 09:10:52:	Info:	Is message identified by Dialogflow? - Yes
2018-01-22 09:10:52:	Info:	Identified intent: Measure4Element
2018-01-22 09:10:52:	Info:	Identified Measures: Total Billable Hours
2018-01-22 09:12:27:	Info:	Sent text <I think you want to know Total Billable Hours on date(s).
In that case, the Total Billable Hours is 135.00> to channel D8JM56J4W
2018-01-22 09:12:28:	Info:	Message received.
2018-01-22 09:13:02:	Info:	Message received.
2018-01-22 09:13:02:	Info:	Message.		[jsuthar] [Get billable hours entered for Jinesh Patel in Feb 2017?]
2018-01-22 09:13:02:	Info:	Is message direct command? - No
2018-01-22 09:17:19:	Info:	Is message identified by Dialogflow? - Yes
2018-01-22 09:17:19:	Info:	Identified intent: Measure4Element
2018-01-22 09:17:19:	Info:	Identified Measures: Total Billable Hours
2018-01-22 09:18:02:	Info:	Sent text <I think you want to know Total Billable Hours on date(s).
In that case, the Total Billable Hours is 135.00> to channel D8JM56J4W
2018-01-22 10:40:33:	Info:	Thank you for using Qlik Slack ChatBOT.
2018-01-22 10:40:35:	Info:	Connected to qlik sense version: 3.2.4
2018-01-22 10:40:35:	Info:	UserID: tmichatbot - VirtualProxy: hdr
2018-01-22 10:40:37:	Info:	Opened App ff1aa43c-debd-46fa-8855-86318b9a8a69
2018-01-22 10:40:37:	Info:	Opened the qlik sense app: Harvest Demo for BOT
2018-01-22 10:40:37:	Info:	Opened connection with Dialogflow.
2018-01-22 10:40:54:	Info:	Message received.
2018-01-22 10:40:54:	Info:	Message.		[jsuthar] [Get billable hours entered for Jinesh Patel in Feb 2017?]
2018-01-22 10:40:56:	Info:	Opened App ff1aa43c-debd-46fa-8855-86318b9a8a69
2018-01-22 10:40:56:	Info:	Opened the qlik sense app: Harvest Demo for BOT for user u8h8pp6a0 (Jigar Suthar)
2018-01-22 10:40:56:	Info:	Is message direct command? - No
2018-01-22 10:42:10:	Info:	Is message identified by Dialogflow? - Yes
2018-01-22 10:44:01:	Info:	Thank you for using Qlik Slack ChatBOT.
2018-01-22 10:44:02:	Info:	Connected to qlik sense version: 3.2.4
2018-01-22 10:44:02:	Info:	UserID: tmichatbot - VirtualProxy: hdr
2018-01-22 10:44:05:	Info:	Opened App ff1aa43c-debd-46fa-8855-86318b9a8a69
2018-01-22 10:44:05:	Info:	Opened the qlik sense app: Harvest Demo for BOT
2018-01-22 10:44:05:	Info:	Opened connection with Dialogflow.
2018-01-22 10:44:18:	Info:	Message received.
2018-01-22 10:44:18:	Info:	Message.		[jsuthar] [Get billable hours entered for Jinesh Patel in Feb 2017?]
2018-01-22 10:44:20:	Info:	Opened App ff1aa43c-debd-46fa-8855-86318b9a8a69
2018-01-22 10:44:20:	Info:	Opened the qlik sense app: Harvest Demo for BOT for user u8h8pp6a0 (Jigar Suthar)
2018-01-22 10:44:20:	Info:	Is message direct command? - No
2018-01-22 10:44:21:	Info:	Is message identified by Dialogflow? - Yes
2018-01-22 10:46:10:	Info:	Identified intent: Measure4Element
2018-01-22 10:46:13:	Info:	Identified Measures: Total Billable Hours
2018-01-22 10:51:49:	Info:	Sent text <I think you want to know Total Billable Hours when Time Entry Date is equal to Feb 2017, and Employee Name is equal to Jinesh patel.
In that case, the Total Billable Hours is 68.00> to channel D8JM56J4W
2018-01-22 10:51:52:	Info:	Message received.
2018-01-22 11:11:08:	Info:	Thank you for using Qlik Slack ChatBOT.
2018-01-22 11:11:09:	Info:	Connected to qlik sense version: 3.2.4
2018-01-22 11:11:09:	Info:	UserID: tmichatbot - VirtualProxy: hdr
2018-01-22 11:11:13:	Info:	Opened App ff1aa43c-debd-46fa-8855-86318b9a8a69
2018-01-22 11:11:13:	Info:	Opened the qlik sense app: Harvest Demo for BOT
2018-01-22 11:11:13:	Info:	Opened connection with Dialogflow.
2018-01-22 11:11:20:	Info:	Message received.
2018-01-22 11:11:20:	Info:	Message.		[jsuthar] [Get billable hours entered for Jinesh Patel in Feb 2017?]
2018-01-22 11:11:23:	Info:	Opened App ff1aa43c-debd-46fa-8855-86318b9a8a69
2018-01-22 11:11:23:	Info:	Opened the qlik sense app: Harvest Demo for BOT for user u8h8pp6a0 (Jigar Suthar)
2018-01-22 11:11:23:	Info:	Is message direct command? - No
2018-01-22 11:11:24:	Info:	Is message identified by Dialogflow? - Yes
2018-01-22 11:11:24:	Info:	Identified intent: Measure4Element
2018-01-22 11:11:24:	Info:	Identified Measures: Total Billable Hours
2018-01-22 11:11:36:	Error:	Error trying to predict 'Get billable hours entered for Jinesh Patel in Feb 2017?': System.InvalidOperationException: Collection was modified; enumeration operation may not execute.
   at System.ThrowHelper.ThrowInvalidOperationException(ExceptionResource resource)
   at System.Collections.Generic.List`1.Enumerator.MoveNextRare()
   at System.Collections.Generic.List`1.Enumerator.MoveNext()
   at SlackBOT.Conversation.<Reply>d__13.MoveNext() in E:\Product\BOT\Slack BOT\Qlik Slack BOT\SlackBOT\Conversation.cs:line 635
2018-01-22 11:11:36:	Error:	Error trying to predict 'Get billable hours entered for Jinesh Patel in Feb 2017?': System.InvalidOperationException: Collection was modified; enumeration operation may not execute.
   at System.ThrowHelper.ThrowInvalidOperationException(ExceptionResource resource)
   at System.Collections.Generic.List`1.Enumerator.MoveNextRare()
   at System.Collections.Generic.List`1.Enumerator.MoveNext()
   at SlackBOT.Conversation.<Reply>d__13.MoveNext() in E:\Product\BOT\Slack BOT\Qlik Slack BOT\SlackBOT\Conversation.cs:line 635
2018-01-22 11:11:36:	Info:	Sent text <I think you want to know Total Billable Hours when Employee Name is equal to Jinesh patel.
In that case, the Total Billable Hours is 350.50> to channel D8JM56J4W
2018-01-22 11:11:37:	Info:	Message received.
2018-01-22 11:12:05:	Info:	Message received.
2018-01-22 11:12:05:	Info:	Message.		[jsuthar] [Get billable hours entered for Jinesh Patel in Feb 2017?]
2018-01-22 11:12:05:	Info:	Is message direct command? - No
2018-01-22 11:12:06:	Info:	Is message identified by Dialogflow? - Yes
2018-01-22 11:12:06:	Info:	Identified intent: Measure4Element
2018-01-22 11:12:06:	Info:	Identified Measures: Total Billable Hours
2018-01-22 11:18:10:	Error:	Error trying to predict 'Get billable hours entered for Jinesh Patel in Feb 2017?': System.InvalidOperationException: Collection was modified; enumeration operation may not execute.
   at System.ThrowHelper.ThrowInvalidOperationException(ExceptionResource resource)
   at System.Collections.Generic.List`1.Enumerator.MoveNextRare()
   at System.Collections.Generic.List`1.Enumerator.MoveNext()
   at SlackBOT.Conversation.<Reply>d__13.MoveNext() in E:\Product\BOT\Slack BOT\Qlik Slack BOT\SlackBOT\Conversation.cs:line 635
2018-01-22 11:18:10:	Error:	Error trying to predict 'Get billable hours entered for Jinesh Patel in Feb 2017?': System.InvalidOperationException: Collection was modified; enumeration operation may not execute.
   at System.ThrowHelper.ThrowInvalidOperationException(ExceptionResource resource)
   at System.Collections.Generic.List`1.Enumerator.MoveNextRare()
   at System.Collections.Generic.List`1.Enumerator.MoveNext()
   at SlackBOT.Conversation.<Reply>d__13.MoveNext() in E:\Product\BOT\Slack BOT\Qlik Slack BOT\SlackBOT\Conversation.cs:line 635
2018-01-22 11:18:10:	Info:	Sent text <I think you want to know Total Billable Hours when Employee Name is equal to Jinesh patel.
In that case, the Total Billable Hours is 350.50> to channel D8JM56J4W
2018-01-22 11:19:18:	Info:	Thank you for using Qlik Slack ChatBOT.
2018-01-22 11:19:19:	Info:	Connected to qlik sense version: 3.2.4
2018-01-22 11:19:19:	Info:	UserID: tmichatbot - VirtualProxy: hdr
2018-01-22 11:19:25:	Info:	Opened App ff1aa43c-debd-46fa-8855-86318b9a8a69
2018-01-22 11:19:25:	Info:	Opened the qlik sense app: Harvest Demo for BOT
2018-01-22 11:19:25:	Info:	Opened connection with Dialogflow.
2018-01-22 11:19:33:	Info:	Message received.
2018-01-22 11:19:33:	Info:	Message.		[jsuthar] [Get billable hours entered for Jinesh Patel in Feb 2017?]
2018-01-22 11:19:37:	Info:	Opened App ff1aa43c-debd-46fa-8855-86318b9a8a69
2018-01-22 11:19:37:	Info:	Opened the qlik sense app: Harvest Demo for BOT for user u8h8pp6a0 (Jigar Suthar)
2018-01-22 11:19:37:	Info:	Is message direct command? - No
2018-01-22 11:19:38:	Info:	Is message identified by Dialogflow? - Yes
2018-01-22 11:19:38:	Info:	Identified intent: Measure4Element
2018-01-22 11:19:38:	Info:	Identified Measures: Total Billable Hours
2018-01-22 11:20:24:	Error:	Error trying to predict 'Get billable hours entered for Jinesh Patel in Feb 2017?': System.InvalidOperationException: Collection was modified; enumeration operation may not execute.
   at System.ThrowHelper.ThrowInvalidOperationException(ExceptionResource resource)
   at System.Collections.Generic.List`1.Enumerator.MoveNextRare()
   at System.Collections.Generic.List`1.Enumerator.MoveNext()
   at SlackBOT.Conversation.<Reply>d__13.MoveNext() in E:\Product\BOT\Slack BOT\Qlik Slack BOT\SlackBOT\Conversation.cs:line 635
2018-01-22 11:20:24:	Error:	Error trying to predict 'Get billable hours entered for Jinesh Patel in Feb 2017?': System.InvalidOperationException: Collection was modified; enumeration operation may not execute.
   at System.ThrowHelper.ThrowInvalidOperationException(ExceptionResource resource)
   at System.Collections.Generic.List`1.Enumerator.MoveNextRare()
   at System.Collections.Generic.List`1.Enumerator.MoveNext()
   at SlackBOT.Conversation.<Reply>d__13.MoveNext() in E:\Product\BOT\Slack BOT\Qlik Slack BOT\SlackBOT\Conversation.cs:line 635
2018-01-22 11:20:24:	Info:	Sent text <I think you want to know Total Billable Hours when Time Entry Date is equal to Feb 2017, and Employee Name is equal to Jinesh patel.
In that case, the Total Billable Hours is 68.00> to channel D8JM56J4W
2018-01-22 11:20:24:	Info:	Message received.
2018-01-22 11:20:41:	Info:	Message received.
2018-01-22 11:20:41:	Info:	Message.		[jsuthar] [Get billable hours entered for Jinesh Patel in Feb 2017?]
2018-01-22 11:20:41:	Info:	Is message direct command? - No
2018-01-22 11:20:42:	Info:	Is message identified by Dialogflow? - Yes
2018-01-22 11:21:56:	Info:	Identified intent: Measure4Element
2018-01-22 11:21:56:	Info:	Identified Measures: Total Billable Hours
2018-01-22 11:23:57:	Info:	Thank you for using Qlik Slack ChatBOT.
2018-01-22 11:23:59:	Info:	Connected to qlik sense version: 3.2.4
2018-01-22 11:23:59:	Info:	UserID: tmichatbot - VirtualProxy: hdr
2018-01-22 11:24:02:	Info:	Opened App ff1aa43c-debd-46fa-8855-86318b9a8a69
2018-01-22 11:24:02:	Info:	Opened the qlik sense app: Harvest Demo for BOT
2018-01-22 11:24:02:	Info:	Opened connection with Dialogflow.
2018-01-22 11:24:11:	Info:	Message received.
2018-01-22 11:24:11:	Info:	Message.		[jsuthar] [Get billable hours entered for Jinesh Patel in Feb 2017?]
2018-01-22 11:24:13:	Info:	Opened App ff1aa43c-debd-46fa-8855-86318b9a8a69
2018-01-22 11:24:13:	Info:	Opened the qlik sense app: Harvest Demo for BOT for user u8h8pp6a0 (Jigar Suthar)
2018-01-22 11:24:13:	Info:	Is message direct command? - No
2018-01-22 11:24:15:	Info:	Is message identified by Dialogflow? - Yes
2018-01-22 11:24:19:	Info:	Identified intent: Measure4Element
2018-01-22 11:24:19:	Info:	Identified Measures: Total Billable Hours
2018-01-22 11:27:35:	Info:	Sent text <I think you want to know Total Billable Hours when Employee Name is equal to Jinesh patel.
In that case, the Total Billable Hours is 350.50> to channel D8JM56J4W
2018-01-22 11:49:20:	Info:	Thank you for using Qlik Slack ChatBOT.
2018-01-22 11:49:21:	Info:	Connected to qlik sense version: 3.2.4
2018-01-22 11:49:21:	Info:	UserID: tmichatbot - VirtualProxy: hdr
2018-01-22 11:49:24:	Info:	Opened App ff1aa43c-debd-46fa-8855-86318b9a8a69
2018-01-22 11:49:24:	Info:	Opened the qlik sense app: Harvest Demo for BOT
2018-01-22 11:49:24:	Info:	Opened connection with Dialogflow.
2018-01-22 11:49:38:	Info:	Message received.
2018-01-22 11:49:38:	Info:	Message.		[jsuthar] [Get billable hours entered for Jinesh Patel for Feb 2017?]
2018-01-22 11:49:41:	Info:	Opened App ff1aa43c-debd-46fa-8855-86318b9a8a69
2018-01-22 11:49:41:	Info:	Opened the qlik sense app: Harvest Demo for BOT for user u8h8pp6a0 (Jigar Suthar)
2018-01-22 11:49:41:	Info:	Is message direct command? - No
2018-01-22 11:49:42:	Info:	Is message identified by Dialogflow? - Yes
2018-01-22 11:49:42:	Info:	Identified intent: Measure4Element
2018-01-22 11:49:42:	Info:	Identified Measures: Total Billable Hours
2018-01-22 11:50:57:	Error:	Error trying to predict 'Get billable hours entered for Jinesh Patel for Feb 2017?': System.InvalidOperationException: Collection was modified; enumeration operation may not execute.
   at System.ThrowHelper.ThrowInvalidOperationException(ExceptionResource resource)
   at System.Collections.Generic.List`1.Enumerator.MoveNextRare()
   at System.Collections.Generic.List`1.Enumerator.MoveNext()
   at SlackBOT.Conversation.<Reply>d__13.MoveNext()
2018-01-22 11:50:57:	Error:	Error trying to predict 'Get billable hours entered for Jinesh Patel for Feb 2017?': System.InvalidOperationException: Collection was modified; enumeration operation may not execute.
   at System.ThrowHelper.ThrowInvalidOperationException(ExceptionResource resource)
   at System.Collections.Generic.List`1.Enumerator.MoveNextRare()
   at System.Collections.Generic.List`1.Enumerator.MoveNext()
   at SlackBOT.Conversation.<Reply>d__13.MoveNext()
2018-01-22 11:50:57:	Info:	Sent text <I think you want to know Total Billable Hours when Time Entry Date is equal to Feb 2017, and Employee Name is equal to Jinesh patel.
In that case, the Total Billable Hours is 68.00> to channel D8JM56J4W
2018-01-22 11:50:57:	Info:	Message received.
2018-01-22 11:51:04:	Info:	Message received.
2018-01-22 11:51:04:	Info:	Message.		[jsuthar] [Get billable hours entered for Jinesh Patel for Feb 2017?]
2018-01-22 11:51:05:	Info:	Is message direct command? - No
2018-01-22 11:51:05:	Info:	Is message identified by Dialogflow? - Yes
2018-01-22 11:51:06:	Info:	Identified intent: Measure4Element
2018-01-22 11:51:06:	Info:	Identified Measures: Total Billable Hours
2018-01-22 12:18:37:	Info:	Thank you for using Qlik Slack ChatBOT.
2018-01-22 12:18:38:	Info:	Connected to qlik sense version: 3.2.4
2018-01-22 12:18:38:	Info:	UserID: tmichatbot - VirtualProxy: hdr
2018-01-22 12:18:49:	Info:	Opened App ff1aa43c-debd-46fa-8855-86318b9a8a69
2018-01-22 12:18:49:	Info:	Opened the qlik sense app: Harvest Demo for BOT
2018-01-22 12:18:49:	Info:	Opened connection with Dialogflow.
2018-01-22 12:19:04:	Info:	Message received.
2018-01-22 12:19:04:	Info:	Message.		[jsuthar] [Get billable hours entered for Jinesh Patel for Feb 2017]
2018-01-22 12:19:12:	Info:	Opened App ff1aa43c-debd-46fa-8855-86318b9a8a69
2018-01-22 12:19:12:	Info:	Opened the qlik sense app: Harvest Demo for BOT for user u8h8pp6a0 (Jigar Suthar)
2018-01-22 12:19:12:	Info:	Is message direct command? - No
2018-01-22 12:19:13:	Info:	Is message identified by Dialogflow? - Yes
2018-01-22 12:19:14:	Info:	Identified intent: Measure4Element
2018-01-22 12:19:14:	Info:	Identified Measures: Total Billable Hours
2018-01-22 12:19:14:	Error:	Error trying to predict 'Get billable hours entered for Jinesh Patel for Feb 2017': System.InvalidCastException: Unable to cast object of type 'WhereSelectListIterator`2[QlikSense.QlikSenseFilter,System.Boolean]' to type 'System.Collections.Generic.List`1[QlikSense.QlikSenseFilter]'.
   at SlackBOT.Conversation.<Reply>d__13.MoveNext() in E:\Product\BOT\Slack BOT\Qlik Slack BOT\SlackBOT\Conversation.cs:line 635
2018-01-22 12:19:14:	Error:	Error trying to predict 'Get billable hours entered for Jinesh Patel for Feb 2017': System.InvalidCastException: Unable to cast object of type 'WhereSelectListIterator`2[QlikSense.QlikSenseFilter,System.Boolean]' to type 'System.Collections.Generic.List`1[QlikSense.QlikSenseFilter]'.
   at SlackBOT.Conversation.<Reply>d__13.MoveNext() in E:\Product\BOT\Slack BOT\Qlik Slack BOT\SlackBOT\Conversation.cs:line 635
2018-01-22 12:19:14:	Info:	Sent text <I think you want to know Total Billable Hours when Time Entry Date is equal to Feb 2017, and Employee Name is equal to Jinesh patel.
In that case, the Total Billable Hours is 68.00> to channel D8JM56J4W
2018-01-22 12:19:14:	Info:	Message received.
2018-01-22 12:19:32:	Info:	Message received.
2018-01-22 12:19:32:	Info:	Message.		[jsuthar] [Get billable hours entered for Jinesh Patel for Feb 2017]
2018-01-22 12:19:32:	Info:	Is message direct command? - No
2018-01-22 12:19:33:	Info:	Is message identified by Dialogflow? - Yes
2018-01-22 12:19:33:	Info:	Identified intent: Measure4Element
2018-01-22 12:19:33:	Info:	Identified Measures: Total Billable Hours
2018-01-22 12:21:01:	Info:	Thank you for using Qlik Slack ChatBOT.
2018-01-22 12:21:03:	Info:	Connected to qlik sense version: 3.2.4
2018-01-22 12:21:03:	Info:	UserID: tmichatbot - VirtualProxy: hdr
2018-01-22 12:21:09:	Info:	Opened App ff1aa43c-debd-46fa-8855-86318b9a8a69
2018-01-22 12:21:09:	Info:	Opened the qlik sense app: Harvest Demo for BOT
2018-01-22 12:21:09:	Info:	Opened connection with Dialogflow.
2018-01-22 12:21:15:	Info:	Message received.
2018-01-22 12:21:15:	Info:	Message.		[jsuthar] [Get billable hours entered for Jinesh Patel for Feb 2017]
2018-01-22 12:21:22:	Info:	Opened App ff1aa43c-debd-46fa-8855-86318b9a8a69
2018-01-22 12:21:22:	Info:	Opened the qlik sense app: Harvest Demo for BOT for user u8h8pp6a0 (Jigar Suthar)
2018-01-22 12:21:22:	Info:	Is message direct command? - No
2018-01-22 12:21:23:	Info:	Is message identified by Dialogflow? - Yes
2018-01-22 12:21:24:	Info:	Identified intent: Measure4Element
2018-01-22 12:21:24:	Info:	Identified Measures: Total Billable Hours
2018-01-22 12:39:27:	Info:	Thank you for using Qlik Slack ChatBOT.
2018-01-22 12:39:29:	Info:	Connected to qlik sense version: 3.2.4
2018-01-22 12:39:29:	Info:	UserID: tmichatbot - VirtualProxy: hdr
2018-01-22 12:39:31:	Info:	Opened App ff1aa43c-debd-46fa-8855-86318b9a8a69
2018-01-22 12:39:31:	Info:	Opened the qlik sense app: Harvest Demo for BOT
2018-01-22 12:39:31:	Info:	Opened connection with Dialogflow.
2018-01-22 12:39:35:	Info:	Message received.
2018-01-22 12:39:35:	Info:	Message.		[jsuthar] [Get billable hours entered for Jinesh Patel for Feb 2017]
2018-01-22 12:39:38:	Info:	Opened App ff1aa43c-debd-46fa-8855-86318b9a8a69
2018-01-22 12:39:38:	Info:	Opened the qlik sense app: Harvest Demo for BOT for user u8h8pp6a0 (Jigar Suthar)
2018-01-22 12:39:38:	Info:	Is message direct command? - No
2018-01-22 12:39:39:	Info:	Is message identified by Dialogflow? - Yes
2018-01-22 12:39:39:	Info:	Identified intent: Measure4Element
2018-01-22 12:39:39:	Info:	Identified Measures: Total Billable Hours
2018-01-22 12:39:45:	Info:	Sent text <I think you want to know Total Billable Hours when Time Entry Date is equal to Feb 2017, and Employee Name is equal to Jinesh patel.
In that case, the Total Billable Hours is 68.00> to channel D8JM56J4W
2018-01-22 12:39:45:	Info:	Message received.
2018-01-22 12:40:01:	Info:	Message received.
2018-01-22 12:40:01:	Info:	Message.		[jsuthar] [Get billable hours entered for Jigar Suthar for March 2017]
2018-01-22 12:40:02:	Info:	Is message direct command? - No
2018-01-22 12:40:03:	Info:	Is message identified by Dialogflow? - Yes
2018-01-22 12:40:03:	Info:	Identified intent: Measure4Element
2018-01-22 12:40:03:	Info:	Identified Measures: Total Billable Hours
2018-01-22 12:40:09:	Info:	Sent text <I think you want to know Total Billable Hours when Time Entry Date is equal to March 2017, and Employee Name is equal to Jigar Suthar.
In that case, the Total Billable Hours is 0> to channel D8JM56J4W
2018-01-22 12:40:10:	Info:	Message received.
2018-01-22 12:40:17:	Info:	Message received.
2018-01-22 12:40:17:	Info:	Message.		[jsuthar] [Get billable hours entered for Jinesh Patel for Feb 2017]
2018-01-22 12:40:17:	Info:	Is message direct command? - No
2018-01-22 12:40:18:	Info:	Is message identified by Dialogflow? - Yes
2018-01-22 12:40:18:	Info:	Identified intent: Measure4Element
2018-01-22 12:40:18:	Info:	Identified Measures: Total Billable Hours
2018-01-22 12:40:26:	Info:	Sent text <I think you want to know Total Billable Hours when Time Entry Date is equal to Feb 2017, and Employee Name is equal to Jinesh patel.
In that case, the Total Billable Hours is 68.00> to channel D8JM56J4W
2018-01-22 12:40:26:	Info:	Message received.
2018-01-22 12:41:19:	Info:	Message received.
2018-01-22 12:41:19:	Info:	Message.		[jsuthar] [Select Jinesh Patel]
2018-01-22 12:41:19:	Info:	Is message direct command? - No
2018-01-22 12:41:20:	Info:	Is message identified by Dialogflow? - Yes
2018-01-22 12:41:20:	Info:	Identified intent: Filter
2018-01-22 12:41:49:	Info:	Sent text <I have filtered now Employee Name to Jinesh patel
So, now we are analyzing Employee Name is equal to Jinesh patel> to channel D8JM56J4W
2018-01-22 12:41:50:	Info:	Message received.
2018-01-22 12:42:04:	Info:	Message received.
2018-01-22 12:42:04:	Info:	Message.		[jsuthar] [Get billable hours entered for Jigar Suthar for Feb 2017]
2018-01-22 12:42:04:	Info:	Is message direct command? - No
2018-01-22 12:42:05:	Info:	Is message identified by Dialogflow? - Yes
2018-01-22 12:42:05:	Info:	Identified intent: Measure4Element
2018-01-22 12:42:05:	Info:	Identified Measures: Total Billable Hours
2018-01-22 12:42:45:	Info:	Sent text <I think you want to know Total Billable Hours when Employee Name is equal to Jigar Suthar, and Time Entry Date is equal to Feb 2017.
In that case, the Total Billable Hours is 135.00> to channel D8JM56J4W
2018-01-22 12:42:45:	Info:	Message received.
2018-01-22 12:43:52:	Info:	Message received.
2018-01-22 12:43:52:	Info:	Message.		[jsuthar] [Select Jinesh Patel]
2018-01-22 12:43:52:	Info:	Is message direct command? - No
2018-01-22 12:43:53:	Info:	Is message identified by Dialogflow? - Yes
2018-01-22 12:43:53:	Info:	Identified intent: Filter
2018-01-22 12:43:56:	Info:	Sent text <I have filtered now Employee Name to Jinesh patel
So, now we are analyzing Employee Name is equal to Jinesh patel> to channel D8JM56J4W
2018-01-22 12:43:56:	Info:	Message received.
2018-01-22 12:44:36:	Info:	Message received.
2018-01-22 12:44:36:	Info:	Message.		[jsuthar] [Get billable hours entered for Ronak Patel for Feb 2017]
2018-01-22 12:44:36:	Info:	Is message direct command? - No
2018-01-22 12:44:37:	Info:	Is message identified by Dialogflow? - Yes
2018-01-22 12:44:37:	Info:	Identified intent: Measure4Element
2018-01-22 12:44:37:	Info:	Identified Measures: Total Billable Hours
2018-01-22 12:44:47:	Info:	Sent text <I think you want to know Total Billable Hours when Employee Name is equal to Ronak Patel, and Time Entry Date is equal to Feb 2017.
In that case, the Total Billable Hours is 61.00> to channel D8JM56J4W
2018-01-22 12:44:48:	Info:	Message received.
2018-01-22 12:47:23:	Info:	Message received.
2018-01-22 12:47:23:	Info:	Message.		[jsuthar] [Select Jinesh Patel]
2018-01-22 12:47:23:	Info:	Is message direct command? - No
2018-01-22 12:47:24:	Info:	Is message identified by Dialogflow? - Yes
2018-01-22 12:47:24:	Info:	Identified intent: Filter
2018-01-22 12:47:30:	Info:	Sent text <I have filtered now Employee Name to Jinesh patel
So, now we are analyzing Employee Name is equal to Jinesh patel> to channel D8JM56J4W
2018-01-22 12:47:31:	Info:	Message received.
2018-01-22 12:47:40:	Info:	Message received.
2018-01-22 12:47:40:	Info:	Message.		[jsuthar] [Get billable hours entered for Feb 2017]
2018-01-22 12:47:40:	Info:	Is message direct command? - No
2018-01-22 12:47:41:	Info:	Is message identified by Dialogflow? - Yes
2018-01-22 12:47:41:	Info:	Identified intent: Measure4Element
2018-01-22 12:47:41:	Info:	Identified Measures: Total Billable Hours
2018-01-22 12:47:41:	Info:	Sent text <I think you want a particular data, but I don't know for which element, so I will better show you: Current Total Billable Hours value is 1,196.03> to channel D8JM56J4W
2018-01-22 12:47:42:	Info:	Message received.
2018-01-22 12:47:54:	Info:	Message received.
2018-01-22 12:47:54:	Info:	Message.		[jsuthar] [Get billable hours entered for Feb 2017]
2018-01-22 12:47:54:	Info:	Is message direct command? - No
2018-01-22 12:47:55:	Info:	Is message identified by Dialogflow? - Yes
2018-01-22 12:47:55:	Info:	Identified intent: Measure4Element
2018-01-22 12:47:55:	Info:	Identified Measures: Total Billable Hours
2018-01-22 12:48:16:	Info:	Sent text <I think you want a particular data, but I don't know for which element, so I will better show you: Current Total Billable Hours value is 1,196.03> to channel D8JM56J4W
2018-01-22 12:48:16:	Info:	Message received.
2018-01-22 12:48:46:	Info:	Message received.
2018-01-22 12:48:46:	Info:	Message.		[jsuthar] [Show billable hours entered for Feb 2017]
2018-01-22 12:48:46:	Info:	Is message direct command? - No
2018-01-22 12:48:47:	Info:	Is message identified by Dialogflow? - Yes
2018-01-22 12:48:47:	Info:	Identified intent: KPI
2018-01-22 12:48:47:	Info:	Identified Measures: Total Billable Hours
2018-01-22 12:49:06:	Info:	Sent text <I think you want to know Total Billable Hours when Employee Name is equal to Jinesh patel, and Time Entry Date is equal to Feb 2017.
In that case, the Total Billable Hours is 68.00> to channel D8JM56J4W
2018-01-22 12:49:06:	Info:	Message received.
2018-01-22 14:24:18:	Info:	Message received.
2018-01-22 14:24:18:	Info:	Message.		[jsuthar] [Hi]
2018-01-22 14:24:19:	Info:	Is message direct command? - No
2018-01-22 14:24:19:	Info:	Is message identified by Dialogflow? - Yes
2018-01-22 14:24:19:	Info:	Identified intent: Hello
2018-01-22 14:24:19:	Info:	Sent text <Hi Jigar Suthar, How are you doing?
Tell me how can I help you. (type help for options)> to channel D8JM56J4W
2018-01-22 14:24:21:	Info:	Message received.
2018-01-22 14:24:57:	Info:	Message received.
2018-01-22 14:24:57:	Info:	Message.		[jsuthar] [How many billable hours entered in last week?]
2018-01-22 14:24:58:	Info:	Is message direct command? - No
2018-01-22 14:24:58:	Info:	Is message identified by Dialogflow? - Yes
2018-01-22 14:25:41:	Info:	Thank you for using Qlik Slack ChatBOT.
2018-01-22 14:25:42:	Error:	Error connecting to qlik sense server.
2018-01-22 14:25:42:	Error:	LicenseAccessDenied [Fatal]: Access to the app is denied: NoAvailableAccessType
2018-01-22 14:25:42:	Error:	   at Qlik.Engine.Communication.QlikConnection.AwaitResponseTask[T](T task, String methodName, CancellationToken cancellationToken)
   at Qlik.Engine.Communication.QlikConnection.Ping(Nullable`1 noVersionCheck)
   at Qlik.Engine.LocationExtensions.Hub(ILocation location, ISession session, Nullable`1 noVersionCheck)
   at QlikSense.QlikSenseApp.ConnectQlikSenseServer(String UserId, String HeaderAuthName, String VirtualProxyPath, Boolean UseSSL, Boolean certificateValidation, Boolean CheckSDKVersion) in E:\Product\BOT\Slack BOT\Qlik Slack BOT\QlikSense\QlikSenseUtil.cs:line 319
2018-01-22 14:25:42:	Error:	Error connecting to qlik sense server.
2018-01-22 14:25:42:	Error:	One or more errors occurred.
2018-01-22 14:25:42:	Error:	   at System.Threading.Tasks.Task.ThrowIfExceptional(Boolean includeTaskCanceledExceptions)
   at System.Threading.Tasks.Task.Wait(Int32 millisecondsTimeout, CancellationToken cancellationToken)
   at Qlik.Engine.LocationExtensions.AsStaticHeaderUserViaProxy(ILocation location, String headerUserId, String headerAuthenticationHeaderName, Boolean proxyUsesSsl, Boolean certificateValidation)
   at QlikSense.QlikSenseApp.ConnectQlikSenseServer(String UserId, String HeaderAuthName, String VirtualProxyPath, Boolean UseSSL, Boolean certificateValidation, Boolean CheckSDKVersion) in E:\Product\BOT\Slack BOT\Qlik Slack BOT\QlikSense\QlikSenseUtil.cs:line 314
2018-01-22 14:25:42:	Error:	Error opening the qlik sense app: Harvest Demo for BOT
2018-01-22 14:25:42:	Error:	Connection failed after 4 attempts. Error message:
  The remote certificate is invalid according to the validation procedure.
2018-01-22 14:25:42:	Error:	   at Qlik.Engine.Communication.QlikConnection.AwaitResponseTask[T](T task, String methodName, CancellationToken cancellationToken)
   at Qlik.Engine.Communication.QlikConnection.Ping(Nullable`1 noVersionCheck)
   at Qlik.Engine.LocationExtensions.Hub(ILocation location, ISession session, Nullable`1 noVersionCheck)
   at Qlik.Engine.LocationExtensions.GetAppIdentifiers(ILocation location, Nullable`1 noVersionCheck)
   at Qlik.Engine.LocationExtensions.AppWithIdOrDefault(ILocation location, String appId, Nullable`1 noVersionCheck)
   at QlikSense.QlikSenseApp.QlikSenseOpenApp() in E:\Product\BOT\Slack BOT\Qlik Slack BOT\QlikSense\QlikSenseUtil.cs:line 363
   at SlackBOT.Bot..ctor() in E:\Product\BOT\Slack BOT\Qlik Slack BOT\SlackBOT\Bot.cs:line 121
2018-01-22 14:25:42:	Info:	Opened connection with Dialogflow.
2018-01-22 14:25:58:	Info:	Message received.
2018-01-22 14:25:58:	Info:	Message.		[jsuthar] [How many billable hours entered in last week?]
2018-01-22 14:25:59:	Error:	Error connecting to qlik sense server.
2018-01-22 14:25:59:	Error:	One or more errors occurred.
2018-01-22 14:25:59:	Error:	   at System.Threading.Tasks.Task.ThrowIfExceptional(Boolean includeTaskCanceledExceptions)
   at System.Threading.Tasks.Task.Wait(Int32 millisecondsTimeout, CancellationToken cancellationToken)
   at Qlik.Engine.LocationExtensions.AsStaticHeaderUserViaProxy(ILocation location, String headerUserId, String headerAuthenticationHeaderName, Boolean proxyUsesSsl, Boolean certificateValidation)
   at QlikSense.QlikSenseApp.ConnectQlikSenseServer(String UserId, String HeaderAuthName, String VirtualProxyPath, Boolean UseSSL, Boolean certificateValidation, Boolean CheckSDKVersion) in E:\Product\BOT\Slack BOT\Qlik Slack BOT\QlikSense\QlikSenseUtil.cs:line 314
2018-01-22 14:25:59:	Error:	Could not connect to the qlik sense server: https://192.168.10.117:555 for user u8h8pp6a0 (Jigar Suthar)
2018-01-22 14:25:59:	Info:	Is message direct command? - No
2018-01-22 14:26:00:	Info:	Is message identified by Dialogflow? - Yes
2018-01-22 14:26:10:	Info:	Thank you for using Qlik Slack ChatBOT.
2018-01-22 14:26:11:	Error:	Error connecting to qlik sense server.
2018-01-22 14:26:11:	Error:	LicenseAccessDenied [Fatal]: Access to the app is denied: NoAvailableAccessType
2018-01-22 14:26:11:	Error:	   at Qlik.Engine.Communication.QlikConnection.AwaitResponseTask[T](T task, String methodName, CancellationToken cancellationToken)
   at Qlik.Engine.Communication.QlikConnection.Ping(Nullable`1 noVersionCheck)
   at Qlik.Engine.LocationExtensions.Hub(ILocation location, ISession session, Nullable`1 noVersionCheck)
   at QlikSense.QlikSenseApp.ConnectQlikSenseServer(String UserId, String HeaderAuthName, String VirtualProxyPath, Boolean UseSSL, Boolean certificateValidation, Boolean CheckSDKVersion) in E:\Product\BOT\Slack BOT\Qlik Slack BOT\QlikSense\QlikSenseUtil.cs:line 319
2018-01-22 14:26:11:	Error:	Error connecting to qlik sense server.
2018-01-22 14:26:11:	Error:	One or more errors occurred.
2018-01-22 14:26:11:	Error:	   at System.Threading.Tasks.Task.ThrowIfExceptional(Boolean includeTaskCanceledExceptions)
   at System.Threading.Tasks.Task.Wait(Int32 millisecondsTimeout, CancellationToken cancellationToken)
   at Qlik.Engine.LocationExtensions.AsStaticHeaderUserViaProxy(ILocation location, String headerUserId, String headerAuthenticationHeaderName, Boolean proxyUsesSsl, Boolean certificateValidation)
   at QlikSense.QlikSenseApp.ConnectQlikSenseServer(String UserId, String HeaderAuthName, String VirtualProxyPath, Boolean UseSSL, Boolean certificateValidation, Boolean CheckSDKVersion) in E:\Product\BOT\Slack BOT\Qlik Slack BOT\QlikSense\QlikSenseUtil.cs:line 314
2018-01-22 14:26:12:	Error:	Error opening the qlik sense app: Harvest Demo for BOT
2018-01-22 14:26:12:	Error:	Connection failed after 4 attempts. Error message:
  The remote certificate is invalid according to the validation procedure.
2018-01-22 14:26:12:	Error:	   at Qlik.Engine.Communication.QlikConnection.AwaitResponseTask[T](T task, String methodName, CancellationToken cancellationToken)
   at Qlik.Engine.Communication.QlikConnection.Ping(Nullable`1 noVersionCheck)
   at Qlik.Engine.LocationExtensions.Hub(ILocation location, ISession session, Nullable`1 noVersionCheck)
   at Qlik.Engine.LocationExtensions.GetAppIdentifiers(ILocation location, Nullable`1 noVersionCheck)
   at Qlik.Engine.LocationExtensions.AppWithIdOrDefault(ILocation location, String appId, Nullable`1 noVersionCheck)
   at QlikSense.QlikSenseApp.QlikSenseOpenApp() in E:\Product\BOT\Slack BOT\Qlik Slack BOT\QlikSense\QlikSenseUtil.cs:line 363
   at SlackBOT.Bot..ctor() in E:\Product\BOT\Slack BOT\Qlik Slack BOT\SlackBOT\Bot.cs:line 121
2018-01-22 14:26:12:	Info:	Opened connection with Dialogflow.
2018-01-22 14:26:20:	Info:	Message received.
2018-01-22 14:26:20:	Info:	Message.		[jsuthar] [How many billable hours entered in last week?]
2018-01-22 14:26:21:	Error:	Error connecting to qlik sense server.
2018-01-22 14:26:21:	Error:	One or more errors occurred.
2018-01-22 14:26:21:	Error:	   at System.Threading.Tasks.Task.ThrowIfExceptional(Boolean includeTaskCanceledExceptions)
   at System.Threading.Tasks.Task.Wait(Int32 millisecondsTimeout, CancellationToken cancellationToken)
   at Qlik.Engine.LocationExtensions.AsStaticHeaderUserViaProxy(ILocation location, String headerUserId, String headerAuthenticationHeaderName, Boolean proxyUsesSsl, Boolean certificateValidation)
   at QlikSense.QlikSenseApp.ConnectQlikSenseServer(String UserId, String HeaderAuthName, String VirtualProxyPath, Boolean UseSSL, Boolean certificateValidation, Boolean CheckSDKVersion) in E:\Product\BOT\Slack BOT\Qlik Slack BOT\QlikSense\QlikSenseUtil.cs:line 314
2018-01-22 14:26:21:	Error:	Could not connect to the qlik sense server: https://192.168.10.117:555 for user u8h8pp6a0 (Jigar Suthar)
2018-01-22 14:26:21:	Info:	Is message direct command? - No
2018-01-22 14:26:22:	Info:	Is message identified by Dialogflow? - Yes
2018-01-22 14:33:58:	Info:	Thank you for using Qlik Slack ChatBOT.
2018-01-22 14:34:00:	Info:	Connected to qlik sense version: 3.2.4
2018-01-22 14:34:00:	Info:	UserID: tmichatbot - VirtualProxy: hdr
2018-01-22 14:34:03:	Info:	Opened App ff1aa43c-debd-46fa-8855-86318b9a8a69
2018-01-22 14:34:03:	Info:	Opened the qlik sense app: Harvest Demo for BOT
2018-01-22 14:34:03:	Info:	Opened connection with Dialogflow.
2018-01-22 14:34:11:	Info:	Message received.
2018-01-22 14:34:11:	Info:	Message.		[jsuthar] [How many billable hours entered in last week?]
2018-01-22 14:34:13:	Info:	Opened App ff1aa43c-debd-46fa-8855-86318b9a8a69
2018-01-22 14:34:13:	Info:	Opened the qlik sense app: Harvest Demo for BOT for user u8h8pp6a0 (Jigar Suthar)
2018-01-22 14:34:13:	Info:	Is message direct command? - No
2018-01-22 14:34:14:	Info:	Is message identified by Dialogflow? - Yes
2018-01-22 14:34:27:	Info:	Identified intent: Measure4Element
2018-01-22 14:34:27:	Info:	Identified Measures: Total Billable Hours
2018-01-22 14:35:11:	Info:	Sent text <I think you want a particular data, but I don't know for which element, so I will better show you: Current Total Billable Hours value is 1,196.03> to channel D8JM56J4W
2018-01-22 14:35:11:	Info:	Message received.
2018-01-22 14:36:58:	Info:	Message received.
2018-01-22 14:36:58:	Info:	Message.		[jsuthar] [How many billable hours entered in last week?]
2018-01-22 14:36:58:	Info:	Is message direct command? - No
2018-01-22 14:40:12:	Info:	Is message identified by Dialogflow? - Yes
2018-01-22 14:40:20:	Info:	Identified intent: KPI
2018-01-22 14:40:20:	Info:	Identified Measures: Total Billable Hours
2018-01-22 14:40:37:	Info:	Sent text <I think you want to know Total Billable Hours when Time Entry Date is equal to in last week.
In that case, the Total Billable Hours is 0> to channel D8JM56J4W
2018-01-22 14:40:38:	Info:	Message received.
2018-01-22 14:41:00:	Info:	Message received.
2018-01-22 14:41:00:	Info:	Message.		[jsuthar] [How many billable hours entered in last year?]
2018-01-22 14:41:00:	Info:	Is message direct command? - No
2018-01-22 14:41:05:	Info:	Is message identified by Dialogflow? - Yes
2018-01-22 14:41:06:	Info:	Identified intent: KPI
2018-01-22 14:41:06:	Info:	Identified Measures: Total Billable Hours
2018-01-22 14:41:08:	Info:	Sent text <I think you want to know Total Billable Hours when Time Entry Date is equal to in last year.
In that case, the Total Billable Hours is 1,150.53> to channel D8JM56J4W
2018-01-22 14:41:08:	Info:	Message received.
2018-01-22 14:43:29:	Info:	Message received.
2018-01-22 14:43:29:	Info:	Message.		[jsuthar] [Total billable hours]
2018-01-22 14:43:29:	Info:	Is message direct command? - No
2018-01-22 14:43:30:	Info:	Is message identified by Dialogflow? - Yes
2018-01-22 14:43:42:	Info:	Identified intent: KPI
2018-01-22 14:43:42:	Info:	Identified Measures: Total Billable Hours
2018-01-22 14:43:43:	Info:	Sent text <Current Total Billable Hours value is 1,196.03> to channel D8JM56J4W
2018-01-22 14:43:44:	Info:	Message received.
2018-01-22 14:44:13:	Info:	Message received.
2018-01-22 14:44:13:	Info:	Message.		[jsuthar] [Create a chart for Total Billable hours by Year]
2018-01-22 14:44:14:	Info:	Is message direct command? - No
2018-01-22 14:44:15:	Info:	Is message identified by Dialogflow? - Yes
2018-01-22 14:44:15:	Info:	Identified intent: CreateChart
2018-01-22 14:44:15:	Info:	Identified Measures: Total Billable Hours
2018-01-22 14:44:17:	Info:	Sheet ID: BotChart-u8h8pp6a0
2018-01-22 14:44:17:	Info:	Chart ID: BotChart-u8h8pp6a0-UserChart
2018-01-22 14:44:34:	Error:	Error capturing chart image.
2018-01-22 14:46:34:	Info:	Message received.
2018-01-22 14:46:34:	Info:	Message.		[jsuthar] [Dimension]
2018-01-22 14:46:35:	Info:	Is message direct command? - No
2018-01-22 14:46:35:	Info:	Is message identified by Dialogflow? - Yes
2018-01-22 14:46:35:	Info:	Identified intent: ShowAllDimensions
2018-01-22 14:46:47:	Info:	Sent text <Choose a dimension> with attachment to channel D8JM56J4W
2018-01-22 14:46:49:	Info:	Message received.
2018-01-22 14:46:49:	Info:	Message received.
2018-01-22 14:48:33:	Info:	Thank you for using Qlik Slack ChatBOT.
2018-01-22 14:48:57:	Info:	Connected to qlik sense version: 3.2.4
2018-01-22 14:48:57:	Info:	UserID: tmichatbot - VirtualProxy: hdr
2018-01-22 14:49:05:	Info:	Opened App ff1aa43c-debd-46fa-8855-86318b9a8a69
2018-01-22 14:49:05:	Info:	Opened the qlik sense app: Harvest Demo for BOT
2018-01-22 14:49:05:	Info:	Opened connection with Dialogflow.
2018-01-22 14:49:15:	Info:	Message received.
2018-01-22 14:49:15:	Info:	Message.		[jsuthar] [Hi]
2018-01-22 14:49:23:	Info:	Opened App ff1aa43c-debd-46fa-8855-86318b9a8a69
2018-01-22 14:49:23:	Info:	Opened the qlik sense app: Harvest Demo for BOT for user u8h8pp6a0 (Jigar Suthar)
2018-01-22 14:49:23:	Info:	Is message direct command? - No
2018-01-22 14:49:24:	Info:	Is message identified by Dialogflow? - Yes
2018-01-22 14:49:24:	Info:	Identified intent: Hello
2018-01-22 14:49:26:	Info:	Sent text <Hi Jigar Suthar, How are you doing?
Tell me how can I help you. (type help for options)> to channel D8JM56J4W
2018-01-22 14:49:26:	Info:	Message received.
2018-01-22 14:50:52:	Info:	Message received.
2018-01-22 14:50:52:	Info:	Message.		[jpatel] [dimension]
2018-01-22 14:50:57:	Info:	Opened App ff1aa43c-debd-46fa-8855-86318b9a8a69
2018-01-22 14:50:57:	Info:	Opened the qlik sense app: Harvest Demo for BOT for user u866ytxc3 (Jinesh Patel)
2018-01-22 14:50:57:	Info:	Is message direct command? - No
2018-01-22 14:50:57:	Info:	Is message identified by Dialogflow? - Yes
2018-01-22 14:50:57:	Info:	Identified intent: ShowAllDimensions
2018-01-22 14:50:59:	Info:	Sent text <Choose a dimension> with attachment to channel D8HP09CF5
2018-01-22 14:51:00:	Info:	Message received.
2018-01-22 14:51:01:	Info:	Message received.
2018-01-22 15:01:24:	Info:	Thank you for using Qlik Slack ChatBOT.
2018-01-22 15:01:25:	Info:	Connected to qlik sense version: 3.2.4
2018-01-22 15:01:25:	Info:	UserID: tmichatbot - VirtualProxy: hdr
2018-01-22 15:01:29:	Info:	Opened App ff1aa43c-debd-46fa-8855-86318b9a8a69
2018-01-22 15:01:29:	Info:	Opened the qlik sense app: Harvest Demo for BOT
2018-01-22 15:01:29:	Info:	Opened connection with Dialogflow.
2018-01-22 15:01:35:	Info:	Message received.
2018-01-22 15:01:35:	Info:	Message.		[jsuthar] [Dimensions]
2018-01-22 15:01:38:	Info:	Opened App ff1aa43c-debd-46fa-8855-86318b9a8a69
2018-01-22 15:01:38:	Info:	Opened the qlik sense app: Harvest Demo for BOT for user u8h8pp6a0 (Jigar Suthar)
2018-01-22 15:01:38:	Info:	Is message direct command? - No
2018-01-22 15:01:39:	Info:	Is message identified by Dialogflow? - Yes
2018-01-22 15:01:39:	Info:	Identified intent: ShowAllDimensions
2018-01-22 15:01:41:	Info:	Sent text <Choose a dimension> with attachment to channel D8JM56J4W
2018-01-22 15:01:41:	Info:	Message received.
2018-01-22 15:01:48:	Info:	Message received.
2018-01-22 15:01:48:	Info:	Message.		[jsuthar] [Measures]
2018-01-22 15:01:48:	Info:	Is message direct command? - No
2018-01-22 15:01:48:	Info:	Is message identified by Dialogflow? - Yes
2018-01-22 15:01:48:	Info:	Identified intent: ShowAllMeasures
2018-01-22 15:01:48:	Info:	Sent text <Choose a measure> with attachment to channel D8JM56J4W
2018-01-22 15:01:49:	Info:	Message received.
2018-01-22 15:02:21:	Info:	Message received.
2018-01-22 15:02:21:	Info:	Message.		[jsuthar] [Create a chart Total Billable Hours by Task Name]
2018-01-22 15:02:22:	Info:	Is message direct command? - No
2018-01-22 15:02:22:	Info:	Is message identified by Dialogflow? - Yes
2018-01-22 15:02:22:	Info:	Identified intent: CreateChart
2018-01-22 15:02:22:	Info:	Identified Measures: Total Billable Hours
2018-01-22 15:02:22:	Info:	Identified Dimensions: Task Name
2018-01-22 15:02:22:	Info:	Sheet ID: BotChart-u8h8pp6a0
2018-01-22 15:02:22:	Info:	Chart ID: BotChart-u8h8pp6a0-UserChart
2018-01-22 15:02:33:	Info:	Sent photo message <C:\Users\jsuthar\Desktop\Slack Demo\Capture\Total Billable Hours by Task Name.png> with text <Total Billable Hours by Task Name> to channel D8JM56J4W
2018-01-22 15:02:37:	Info:	Message received.
2018-01-22 15:04:04:	Info:	Message received.
2018-01-22 15:04:04:	Info:	Message.		[jsuthar] [Create a chart Total Billable Hours by Task Name]
2018-01-22 15:04:04:	Info:	Is message direct command? - No
2018-01-22 15:04:05:	Info:	Is message identified by Dialogflow? - Yes
2018-01-22 15:04:05:	Info:	Identified intent: CreateChart
2018-01-22 15:04:05:	Info:	Identified Measures: Total Billable Hours
2018-01-22 15:04:05:	Info:	Identified Dimensions: Task Name
2018-01-22 15:04:05:	Info:	Sheet ID: BotChart-u8h8pp6a0
2018-01-22 15:04:05:	Info:	Chart ID: BotChart-u8h8pp6a0-UserChart
2018-01-22 15:04:14:	Error:	Error capturing chart image.
2018-01-22 15:07:04:	Info:	Message received.
2018-01-22 15:07:04:	Info:	Message.		[jsuthar] [Create a chart Total Billable Hours by Task Name]
2018-01-22 15:07:04:	Info:	Is message direct command? - No
2018-01-22 15:07:05:	Info:	Is message identified by Dialogflow? - Yes
2018-01-22 15:07:05:	Info:	Identified intent: CreateChart
2018-01-22 15:07:05:	Info:	Identified Measures: Total Billable Hours
2018-01-22 15:07:05:	Info:	Identified Dimensions: Task Name
2018-01-22 15:07:28:	Info:	Sheet ID: BotChart-u8h8pp6a0
2018-01-22 15:07:29:	Info:	Chart ID: BotChart-u8h8pp6a0-UserChart
2018-01-22 15:08:03:	Error:	Error capturing chart image.
2018-01-22 15:08:36:	Info:	Message received.
2018-01-22 15:08:36:	Info:	Message.		[jsuthar] [Create a chart Total Billable Hours by Task Name]
2018-01-22 15:08:36:	Info:	Is message direct command? - No
2018-01-22 15:08:37:	Info:	Is message identified by Dialogflow? - Yes
2018-01-22 15:08:37:	Info:	Identified intent: CreateChart
2018-01-22 15:08:37:	Info:	Identified Measures: Total Billable Hours
2018-01-22 15:08:37:	Info:	Identified Dimensions: Task Name
2018-01-22 15:08:38:	Info:	Sheet ID: BotChart-u8h8pp6a0
2018-01-22 15:08:38:	Info:	Chart ID: BotChart-u8h8pp6a0-UserChart
2018-01-22 15:09:44:	Error:	Error capturing chart image.
2018-01-22 15:10:30:	Info:	Message received.
2018-01-22 15:10:30:	Info:	Message.		[jsuthar] [Create a chart Total Billable Hours by Task Name]
2018-01-22 15:10:31:	Info:	Is message direct command? - No
2018-01-22 15:10:39:	Info:	Is message identified by Dialogflow? - Yes
2018-01-22 15:10:39:	Info:	Identified intent: CreateChart
2018-01-22 15:10:39:	Info:	Identified Measures: Total Billable Hours
2018-01-22 15:10:39:	Info:	Identified Dimensions: Task Name
2018-01-22 15:10:40:	Info:	Sheet ID: BotChart-u8h8pp6a0
2018-01-22 15:10:40:	Info:	Chart ID: BotChart-u8h8pp6a0-UserChart
2018-01-22 15:10:53:	Info:	Sent photo message <C:\Users\jsuthar\Desktop\Slack Demo\Capture\Total Billable Hours by Task Name.png> with text <Total Billable Hours by Task Name> to channel D8JM56J4W
2018-01-22 15:11:01:	Info:	Message received.
2018-01-22 15:11:28:	Info:	Message received.
2018-01-22 15:11:28:	Info:	Message.		[jsuthar] [Create a chart Total Billable Hours by Employee Name]
2018-01-22 15:11:28:	Info:	Is message direct command? - No
2018-01-22 15:11:29:	Info:	Is message identified by Dialogflow? - Yes
2018-01-22 15:11:29:	Info:	Identified intent: CreateChart
2018-01-22 15:11:29:	Info:	Identified Measures: Total Billable Hours
2018-01-22 15:11:29:	Info:	Identified Dimensions: Employee Name
2018-01-22 15:11:30:	Info:	Sheet ID: BotChart-u8h8pp6a0
2018-01-22 15:11:30:	Info:	Chart ID: BotChart-u8h8pp6a0-UserChart
2018-01-22 15:11:42:	Info:	Sent photo message <C:\Users\jsuthar\Desktop\Slack Demo\Capture\Total Billable Hours by Employee Name.png> with text <Total Billable Hours by Employee Name> to channel D8JM56J4W
2018-01-22 15:11:48:	Info:	Message received.
2018-01-22 15:12:21:	Info:	Message received.
2018-01-22 15:12:21:	Info:	Message.		[jsuthar] [Select Jinesh Patel]
2018-01-22 15:12:22:	Info:	Is message direct command? - No
2018-01-22 15:12:22:	Info:	Is message identified by Dialogflow? - Yes
2018-01-22 15:12:22:	Info:	Identified intent: Filter
2018-01-22 15:12:27:	Info:	Sent text <I have filtered now Employee Name to Jinesh patel
So, now we are analyzing Employee Name is equal to Jinesh patel> to channel D8JM56J4W
2018-01-22 15:12:28:	Info:	Message received.
2018-01-22 15:12:39:	Info:	Message received.
2018-01-22 15:12:39:	Info:	Message.		[jsuthar] [Create a chart Total Billable Hours by Project Name]
2018-01-22 15:12:39:	Info:	Is message direct command? - No
2018-01-22 15:12:40:	Info:	Is message identified by Dialogflow? - Yes
2018-01-22 15:12:40:	Info:	Identified intent: CreateChart
2018-01-22 15:12:40:	Info:	Identified Measures: Total Billable Hours
2018-01-22 15:12:40:	Info:	Identified Dimensions: Project Name
2018-01-22 15:12:40:	Info:	Sheet ID: BotChart-u8h8pp6a0
2018-01-22 15:12:40:	Info:	Chart ID: BotChart-u8h8pp6a0-UserChart
2018-01-22 15:12:58:	Info:	Sent photo message <C:\Users\jsuthar\Desktop\Slack Demo\Capture\Total Billable Hours by Project Name.png> with text <Total Billable Hours by Project Name> to channel D8JM56J4W
2018-01-22 15:13:02:	Info:	Message received.
2018-01-22 16:28:32:	Info:	Thank you for using Qlik Slack ChatBOT.
2018-01-22 16:28:34:	Info:	Connected to qlik sense version: 3.2.4
2018-01-22 16:28:34:	Info:	UserID: tmichatbot - VirtualProxy: hdr
2018-01-22 16:28:37:	Info:	Opened App ff1aa43c-debd-46fa-8855-86318b9a8a69
2018-01-22 16:28:37:	Info:	Opened the qlik sense app: Harvest Demo for BOT
2018-01-22 16:28:37:	Info:	Opened connection with Dialogflow.
2018-01-22 16:33:50:	Info:	Message received.
2018-01-22 16:33:50:	Info:	Message.		[jsuthar] [How many hours entered on 29th Dec 2017?]
2018-01-22 16:33:53:	Info:	Opened App ff1aa43c-debd-46fa-8855-86318b9a8a69
2018-01-22 16:33:53:	Info:	Opened the qlik sense app: Harvest Demo for BOT for user u8h8pp6a0 (Jigar Suthar)
2018-01-22 16:33:53:	Info:	Is message direct command? - No
2018-01-22 16:33:55:	Error:	Object reference not set to an instance of an object.
2018-01-22 16:33:55:	Error:	   at Dialogflow.Dialogflow.Predict(String TextToPredict) in E:\Product\BOT\Slack BOT\Qlik Slack BOT\Dialogflow\Dialogflow.cs:line 83
2018-01-22 16:33:55:	Info:	Is message identified by Dialogflow? - No
2018-01-22 16:33:55:	Warn:	Message not managed: How many hours entered on 29th Dec 2017?
2018-01-22 16:34:06:	Info:	Message received.
2018-01-22 16:34:06:	Info:	Message.		[jsuthar] [How many hours entered on 12/29/2017?]
2018-01-22 16:34:07:	Info:	Is message direct command? - No
2018-01-22 16:34:07:	Error:	Object reference not set to an instance of an object.
2018-01-22 16:34:07:	Error:	   at Dialogflow.Dialogflow.Predict(String TextToPredict) in E:\Product\BOT\Slack BOT\Qlik Slack BOT\Dialogflow\Dialogflow.cs:line 83
2018-01-22 16:34:07:	Info:	Is message identified by Dialogflow? - No
2018-01-22 16:34:07:	Warn:	Message not managed: How many hours entered on 12/29/2017?
2018-01-22 16:34:31:	Info:	Message received.
2018-01-22 16:34:31:	Info:	Message.		[jsuthar] [How many hours entered for 12/29/2017]
2018-01-22 16:34:31:	Info:	Is message direct command? - No
2018-01-22 16:34:38:	Info:	Is message identified by Dialogflow? - Yes
2018-01-22 16:34:38:	Info:	Identified intent: KPI
2018-01-22 16:34:38:	Info:	Identified Measures: Total Hours
2018-01-22 16:34:38:	Info:	Sent text <I think you want to know Total Hours when Time Entry Date is equal to 2017-12-29.
In that case, the Total Hours is 38.00> to channel D8JM56J4W
2018-01-22 16:34:39:	Info:	Message received.
2018-01-22 16:43:56:	Info:	Message received.
2018-01-22 16:43:56:	Info:	Message.		[jsuthar] [How many billable hours entered for Image Processing project in last year?]
2018-01-22 16:43:56:	Info:	Is message direct command? - No
2018-01-22 16:43:57:	Info:	Is message identified by Dialogflow? - Yes
2018-01-22 16:43:57:	Info:	Identified intent: Measure4Element
2018-01-22 16:43:57:	Info:	Identified Measures: Total Billable Hours
2018-01-22 16:43:57:	Info:	Sent text <I think you want to know Total Billable Hours when Time Entry Date is equal to in last year, and Project Name is equal to Image Processing.
In that case, the Total Billable Hours is 0> to channel D8JM56J4W
2018-01-22 16:43:59:	Info:	Message received.
2018-01-22 16:44:18:	Info:	Message received.
2018-01-22 16:44:18:	Info:	Message.		[jsuthar] [How many billable hours entered for Jigar suthar in last week?]
2018-01-22 16:44:18:	Info:	Is message direct command? - No
2018-01-22 16:44:19:	Info:	Is message identified by Dialogflow? - Yes
2018-01-22 16:44:19:	Info:	Identified intent: Measure4Element
2018-01-22 16:44:19:	Info:	Identified Measures: Total Billable Hours
2018-01-22 16:44:19:	Info:	Sent text <I think you want to know Total Billable Hours when Time Entry Date is equal to last week, and Employee Name is equal to Jigar Suthar.
In that case, the Total Billable Hours is 0> to channel D8JM56J4W
2018-01-22 16:44:20:	Info:	Message received.
2018-01-22 16:44:27:	Info:	Message received.
2018-01-22 16:44:27:	Info:	Message.		[jsuthar] [How many billable hours entered for Jigar suthar in last year?]
2018-01-22 16:44:28:	Info:	Is message direct command? - No
2018-01-22 16:44:29:	Info:	Is message identified by Dialogflow? - Yes
2018-01-22 16:44:29:	Info:	Identified intent: Measure4Element
2018-01-22 16:44:29:	Info:	Identified Measures: Total Billable Hours
2018-01-22 16:44:29:	Info:	Sent text <I think you want to know Total Billable Hours when Employee Name is equal to Jigar Suthar.
In that case, the Total Billable Hours is 0> to channel D8JM56J4W
2018-01-22 16:44:29:	Info:	Message received.
2018-01-22 16:44:44:	Info:	Message received.
2018-01-22 16:44:44:	Info:	Message.		[jsuthar] [How many billable hours entered for Jinesh Patel in last year?]
2018-01-22 16:44:44:	Info:	Is message direct command? - No
2018-01-22 16:44:45:	Info:	Is message identified by Dialogflow? - Yes
2018-01-22 16:44:45:	Info:	Identified intent: Measure4Element
2018-01-22 16:44:45:	Info:	Identified Measures: Total Billable Hours
2018-01-22 16:44:45:	Info:	Sent text <I think you want to know Total Billable Hours when Employee Name is equal to Jinesh patel.
In that case, the Total Billable Hours is 350.50> to channel D8JM56J4W
2018-01-22 16:44:45:	Info:	Message received.
2018-01-22 16:45:08:	Info:	Message received.
2018-01-22 16:45:08:	Info:	Message.		[jsuthar] [How many billable hours entered for Jinesh Patel in last year?]
2018-01-22 16:45:08:	Info:	Is message direct command? - No
2018-01-22 16:45:09:	Info:	Is message identified by Dialogflow? - Yes
2018-01-22 16:45:09:	Info:	Identified intent: Measure4Element
2018-01-22 16:45:09:	Info:	Identified Measures: Total Billable Hours
2018-01-22 16:45:09:	Info:	Sent text <I think you want to know Total Billable Hours when Employee Name is equal to Jinesh patel.
In that case, the Total Billable Hours is 350.50> to channel D8JM56J4W
2018-01-22 16:45:09:	Info:	Message received.
2018-01-22 16:45:18:	Info:	Message received.
2018-01-22 16:45:18:	Info:	Message.		[jsuthar] [How many billable hours entered for Jinesh Patel in last year?]
2018-01-22 16:45:18:	Info:	Is message direct command? - No
2018-01-22 16:45:19:	Info:	Is message identified by Dialogflow? - Yes
2018-01-22 16:45:19:	Info:	Identified intent: Measure4Element
2018-01-22 16:45:19:	Info:	Identified Measures: Total Billable Hours
2018-01-22 16:46:17:	Info:	Identified intent: Measure4Element
2018-01-22 16:46:17:	Info:	Identified Measures: Total Billable Hours
2018-01-22 16:46:18:	Info:	Sent text <I think you want to know Total Billable Hours when Employee Name is equal to Jinesh patel.
In that case, the Total Billable Hours is 350.50> to channel D8JM56J4W
2018-01-22 16:46:19:	Info:	Message received.
2018-01-22 16:46:35:	Info:	Message received.
2018-01-22 16:46:35:	Info:	Message.		[jsuthar] [How many billable hours entered for Jinesh Patel in last month?]
2018-01-22 16:46:36:	Info:	Is message direct command? - No
2018-01-22 16:46:36:	Info:	Is message identified by Dialogflow? - Yes
2018-01-22 16:46:38:	Info:	Identified intent: Measure4Element
2018-01-22 16:46:38:	Info:	Identified Measures: Total Billable Hours
2018-01-22 16:46:39:	Info:	Sent text <I think you want to know Total Billable Hours when Time Entry Date is equal to last month, and Employee Name is equal to Jinesh patel.
In that case, the Total Billable Hours is 0> to channel D8JM56J4W
2018-01-22 16:46:39:	Info:	Message received.
2018-01-22 17:06:32:	Info:	Thank you for using Qlik Slack ChatBOT.
2018-01-22 17:06:33:	Info:	Connected to qlik sense version: 3.2.4
2018-01-22 17:06:33:	Info:	UserID: tmichatbot - VirtualProxy: hdr
2018-01-22 17:06:37:	Info:	Opened App ff1aa43c-debd-46fa-8855-86318b9a8a69
2018-01-22 17:06:37:	Info:	Opened the qlik sense app: Harvest Demo for BOT
2018-01-22 17:06:37:	Info:	Opened connection with Dialogflow.
2018-01-22 17:09:38:	Info:	Message received.
2018-01-22 17:09:38:	Info:	Message.		[jsuthar] [How many billable hours entered for Jinesh Patel in last year?]
2018-01-22 17:09:41:	Info:	Opened App ff1aa43c-debd-46fa-8855-86318b9a8a69
2018-01-22 17:09:41:	Info:	Opened the qlik sense app: Harvest Demo for BOT for user u8h8pp6a0 (Jigar Suthar)
2018-01-22 17:09:41:	Info:	Is message direct command? - No
2018-01-22 17:09:42:	Info:	Is message identified by Dialogflow? - Yes
2018-01-22 17:11:26:	Error:	Error trying to predict 'How many billable hours entered for Jinesh Patel in last year?': System.TimeoutException: Method "SearchResults" timed out
   at Qlik.Engine.Communication.QlikConnection.AwaitResponseTask[T](T task, String methodName, CancellationToken cancellationToken)
   at Qlik.Engine.App.SearchResults(SearchCombinationOptions options, IEnumerable`1 terms, SearchPage page)
   at QlikSense.QlikSenseApp.QlikSenseSearch(String[] MyText, Boolean isInLine) in E:\Product\BOT\Slack BOT\Qlik Slack BOT\QlikSense\QlikSenseUtil.cs:line 1775
   at SlackBOT.Conversation.<Reply>d__13.MoveNext() in E:\Product\BOT\Slack BOT\Qlik Slack BOT\SlackBOT\Conversation.cs:line 142
2018-01-22 17:11:26:	Error:	Error trying to predict 'How many billable hours entered for Jinesh Patel in last year?': System.TimeoutException: Method "SearchResults" timed out
   at Qlik.Engine.Communication.QlikConnection.AwaitResponseTask[T](T task, String methodName, CancellationToken cancellationToken)
   at Qlik.Engine.App.SearchResults(SearchCombinationOptions options, IEnumerable`1 terms, SearchPage page)
   at QlikSense.QlikSenseApp.QlikSenseSearch(String[] MyText, Boolean isInLine) in E:\Product\BOT\Slack BOT\Qlik Slack BOT\QlikSense\QlikSenseUtil.cs:line 1775
   at SlackBOT.Conversation.<Reply>d__13.MoveNext() in E:\Product\BOT\Slack BOT\Qlik Slack BOT\SlackBOT\Conversation.cs:line 142
2018-01-22 17:11:38:	Info:	Message received.
2018-01-22 17:11:38:	Info:	Message.		[jsuthar] [How many billable hours entered for Jinesh Patel in last month?]
2018-01-22 17:11:38:	Info:	Is message direct command? - No
2018-01-22 17:11:39:	Info:	Is message identified by Dialogflow? - Yes
2018-01-22 17:12:17:	Error:	Error trying to predict 'How many billable hours entered for Jinesh Patel in last month?': System.TimeoutException: Method "SearchResults" timed out
   at Qlik.Engine.Communication.QlikConnection.AwaitResponseTask[T](T task, String methodName, CancellationToken cancellationToken)
   at Qlik.Engine.App.SearchResults(SearchCombinationOptions options, IEnumerable`1 terms, SearchPage page)
   at QlikSense.QlikSenseApp.QlikSenseSearch(String[] MyText, Boolean isInLine) in E:\Product\BOT\Slack BOT\Qlik Slack BOT\QlikSense\QlikSenseUtil.cs:line 1775
   at SlackBOT.Conversation.<Reply>d__13.MoveNext() in E:\Product\BOT\Slack BOT\Qlik Slack BOT\SlackBOT\Conversation.cs:line 142
2018-01-22 17:12:17:	Error:	Error trying to predict 'How many billable hours entered for Jinesh Patel in last month?': System.TimeoutException: Method "SearchResults" timed out
   at Qlik.Engine.Communication.QlikConnection.AwaitResponseTask[T](T task, String methodName, CancellationToken cancellationToken)
   at Qlik.Engine.App.SearchResults(SearchCombinationOptions options, IEnumerable`1 terms, SearchPage page)
   at QlikSense.QlikSenseApp.QlikSenseSearch(String[] MyText, Boolean isInLine) in E:\Product\BOT\Slack BOT\Qlik Slack BOT\QlikSense\QlikSenseUtil.cs:line 1775
   at SlackBOT.Conversation.<Reply>d__13.MoveNext() in E:\Product\BOT\Slack BOT\Qlik Slack BOT\SlackBOT\Conversation.cs:line 142
2018-01-22 17:12:29:	Info:	Message received.
2018-01-22 17:12:29:	Info:	Message.		[jsuthar] [How many billable hours entered for Jinesh Patel in last week?]
2018-01-22 17:12:29:	Info:	Is message direct command? - No
2018-01-22 17:12:30:	Info:	Is message identified by Dialogflow? - Yes
2018-01-22 17:13:37:	Error:	Error trying to predict 'How many billable hours entered for Jinesh Patel in last week?': System.IndexOutOfRangeException: Index was outside the bounds of the array.
   at QlikSense.QlikSenseApp.QlikSenseSearch(String[] MyText, Boolean isInLine) in E:\Product\BOT\Slack BOT\Qlik Slack BOT\QlikSense\QlikSenseUtil.cs:line 1789
   at SlackBOT.Conversation.<Reply>d__13.MoveNext() in E:\Product\BOT\Slack BOT\Qlik Slack BOT\SlackBOT\Conversation.cs:line 142
2018-01-22 17:13:37:	Error:	Error trying to predict 'How many billable hours entered for Jinesh Patel in last week?': System.IndexOutOfRangeException: Index was outside the bounds of the array.
   at QlikSense.QlikSenseApp.QlikSenseSearch(String[] MyText, Boolean isInLine) in E:\Product\BOT\Slack BOT\Qlik Slack BOT\QlikSense\QlikSenseUtil.cs:line 1789
   at SlackBOT.Conversation.<Reply>d__13.MoveNext() in E:\Product\BOT\Slack BOT\Qlik Slack BOT\SlackBOT\Conversation.cs:line 142
2018-01-22 17:13:49:	Info:	Message received.
2018-01-22 17:13:49:	Info:	Message.		[jsuthar] [How many billable hours entered for Jinesh Patel in last month?]
2018-01-22 17:13:49:	Info:	Is message direct command? - No
2018-01-22 17:13:50:	Info:	Is message identified by Dialogflow? - Yes
2018-01-22 17:14:22:	Error:	Error trying to predict 'How many billable hours entered for Jinesh Patel in last month?': System.TimeoutException: Method "SearchResults" timed out
   at Qlik.Engine.Communication.QlikConnection.AwaitResponseTask[T](T task, String methodName, CancellationToken cancellationToken)
   at Qlik.Engine.App.SearchResults(SearchCombinationOptions options, IEnumerable`1 terms, SearchPage page)
   at QlikSense.QlikSenseApp.QlikSenseSearch(String[] MyText, Boolean isInLine) in E:\Product\BOT\Slack BOT\Qlik Slack BOT\QlikSense\QlikSenseUtil.cs:line 1775
   at SlackBOT.Conversation.<Reply>d__13.MoveNext() in E:\Product\BOT\Slack BOT\Qlik Slack BOT\SlackBOT\Conversation.cs:line 142
2018-01-22 17:14:22:	Error:	Error trying to predict 'How many billable hours entered for Jinesh Patel in last month?': System.TimeoutException: Method "SearchResults" timed out
   at Qlik.Engine.Communication.QlikConnection.AwaitResponseTask[T](T task, String methodName, CancellationToken cancellationToken)
   at Qlik.Engine.App.SearchResults(SearchCombinationOptions options, IEnumerable`1 terms, SearchPage page)
   at QlikSense.QlikSenseApp.QlikSenseSearch(String[] MyText, Boolean isInLine) in E:\Product\BOT\Slack BOT\Qlik Slack BOT\QlikSense\QlikSenseUtil.cs:line 1775
   at SlackBOT.Conversation.<Reply>d__13.MoveNext() in E:\Product\BOT\Slack BOT\Qlik Slack BOT\SlackBOT\Conversation.cs:line 142
2018-01-22 17:15:03:	Info:	Message received.
2018-01-22 17:15:03:	Info:	Message.		[jsuthar] [Hey]
2018-01-22 17:15:03:	Info:	Is message direct command? - No
2018-01-22 17:15:04:	Info:	Is message identified by Dialogflow? - Yes
2018-01-22 17:15:11:	Info:	Identified intent: Hello
2018-01-22 17:15:12:	Info:	Sent text <Hi Jigar Suthar, How are you doing?
Tell me how can I help you. (type help for options)> to channel D8JM56J4W
2018-01-22 17:15:13:	Info:	Message received.
2018-01-22 17:17:54:	Info:	Thank you for using Qlik Slack ChatBOT.
2018-01-22 17:17:56:	Info:	Connected to qlik sense version: 3.2.4
2018-01-22 17:17:56:	Info:	UserID: tmichatbot - VirtualProxy: hdr
2018-01-22 17:17:59:	Info:	Opened App ff1aa43c-debd-46fa-8855-86318b9a8a69
2018-01-22 17:17:59:	Info:	Opened the qlik sense app: Harvest Demo for BOT
2018-01-22 17:17:59:	Info:	Opened connection with Dialogflow.
2018-01-22 17:18:03:	Info:	Message received.
2018-01-22 17:18:03:	Info:	Message.		[jsuthar] [How many billable hours entered for Jinesh Patel in last year?]
2018-01-22 17:18:06:	Info:	Opened App ff1aa43c-debd-46fa-8855-86318b9a8a69
2018-01-22 17:18:06:	Info:	Opened the qlik sense app: Harvest Demo for BOT for user u8h8pp6a0 (Jigar Suthar)
2018-01-22 17:18:06:	Info:	Is message direct command? - No
2018-01-22 17:18:07:	Info:	Is message identified by Dialogflow? - Yes
2018-01-22 17:19:31:	Info:	Identified intent: Measure4Element
2018-01-22 17:19:31:	Info:	Identified Measures: Total Billable Hours
2018-01-22 17:19:33:	Info:	Sent text <I think you want to know Total Billable Hours when Time Entry Date is equal to last year, and Employee Name is equal to Jinesh patel.
In that case, the Total Billable Hours is 350.50> to channel D8JM56J4W
2018-01-22 17:19:33:	Info:	Message received.
